<?xml version="1.0" encoding="utf-8"?>
<!-- Generator: Adobe Illustrator 22.0.0, SVG Export Plug-In . SVG Version: 6.00 Build 0)  -->
<svg version="1.1" id="Layer_1" xmlns="http://www.w3.org/2000/svg" xmlns:xlink="http://www.w3.org/1999/xlink" x="0px" y="0px"
	 viewBox="0 0 125 36" style="enable-background:new 0 0 125 36;" xml:space="preserve">
<style type="text/css">
	.st0{fill-rule:evenodd;clip-rule:evenodd;fill:#FFFFFF;}
	.st1{fill-rule:evenodd;clip-rule:evenodd;fill:#F99D1C;}
</style>
<path class="st0" d="M94.5,9c5.2,0,9.5,4.3,9.5,9.5c0,5.2-4.3,9.5-9.5,9.5c-5.2,0-9.5-4.3-9.5-9.5C85,13.3,89.3,9,94.5,9z
	 M94.5,25.3c3.7,0,6.8-3,6.8-6.8c0-3.7-3-6.8-6.8-6.8c-3.7,0-6.8,3-6.8,6.8C87.7,22.2,90.8,25.3,94.5,25.3z"/>
<path class="st0" d="M19,18.5C19,13.3,14.7,9,9.5,9S0,13.3,0,18.5C0,23.7,4.3,28,9.5,28c2.7,0,5.1-1.1,6.8-2.9v2.4H19V19
	C19,18.9,19,18.7,19,18.5 M9.5,25.3c-3.7,0-6.8-3-6.8-6.8c0-3.7,3-6.8,6.8-6.8s6.8,3,6.8,6.8C16.3,22.2,13.2,25.3,9.5,25.3"/>
<path class="st0" d="M125,18.5c0-5.2-4.3-9.5-9.5-9.5c-5.2,0-9.5,4.3-9.5,9.5c0,5.2,4.3,9.5,9.5,9.5c2.7,0,5.1-1.1,6.8-2.9v1.5h0v0
	c0,3.7-3,6.7-6.7,6.7c-2.9,0-5.4-1.9-6.3-4.5l-2.4,1.4c1.4,3.4,4.8,5.8,8.7,5.8c5.2,0,9.4-4.2,9.4-9.4v-7.8h0
	C125,18.7,125,18.6,125,18.5 M116,26c-3.9,0-7-3.1-7-7c0-3.9,3.1-7,7-7s7,3.1,7,7C123,22.9,119.9,26,116,26"/>
<polygon class="st0" points="41,9.1 35.8,9.1 35.8,5 33.2,5 33.2,9.1 28,9.1 28,11.8 33.2,11.8 33.2,27 35.8,27 35.8,11.8 41,11.8 
	"/>
<polygon class="st1" points="30,17.2 26.8,17.2 26.8,14 24.2,14 24.2,17.2 21,17.2 21,19.8 24.2,19.8 24.2,23 26.8,23 26.8,19.8 
	30,19.8 "/>
<path class="st0" d="M68.5,8.7c-2.7,0-5.1,1.1-6.8,2.9V5H59v13.8h0c0.2,5.1,4.4,9.2,9.5,9.2c5.2,0,9.5-4.3,9.5-9.7
	C78,13,73.7,8.7,68.5,8.7 M68.5,25.2c-3.7,0-6.8-3.1-6.8-6.9s3-6.9,6.8-6.9c3.7,0,6.8,3.1,6.8,6.9C75.3,22.1,72.2,25.2,68.5,25.2"/>
<rect x="49" class="st0" width="3" height="32"/>
<rect x="80" y="5" class="st0" width="3" height="22"/>
</svg>
