<?xml version="1.0" encoding="UTF-8"?>
<svg width="19px" height="18px" viewBox="0 0 19 18" version="1.1" xmlns="http://www.w3.org/2000/svg" xmlns:xlink="http://www.w3.org/1999/xlink">
    <!-- Generator: Sketch 47.1 (45422) - http://www.bohemiancoding.com/sketch -->
    <title>Fill 4</title>
    <desc>Created with Sketch.</desc>
    <defs></defs>
    <g id="Blog" stroke="none" stroke-width="1" fill="none" fill-rule="evenodd">
        <g id="Home-Filter" transform="translate(-1365.000000, -36.000000)" fill="#F99D1C">
            <g id="Nav" transform="translate(28.000000, 25.000000)">
                <g id="Favorites-Button" transform="translate(1236.000000, 0.000000)">
                    <path d="M105.421777,22.4014718 L104.176683,27.8005535 C104.102118,28.1886282 104.273624,28.5861375 104.613714,28.8138248 C104.795578,28.935845 105.009645,29 105.232742,29 C105.420781,29 105.605699,28.9528272 105.768241,28.8641424 L110.499958,26.0098748 L115.232072,28.8641424 C115.394149,28.9528272 115.579201,29 115.767173,29 C115.989473,29 116.202943,28.935845 116.384408,28.8150827 C116.724366,28.5886534 116.896735,28.1917731 116.823431,27.8036983 L115.578072,22.4014718 L119.69979,18.7101076 C119.985832,18.429461 120.07693,18.0120762 119.93205,17.6467073 C119.787834,17.2817787 119.429351,17.0243412 119.019477,16.9908799 L113.673978,16.3900874 L111.485436,11.6150072 C111.315988,11.2420907 110.929685,11.0006919 110.499958,11 C110.072156,11 109.685587,11.2402038 109.515143,11.6120511 L107.326003,16.3900874 L101.980969,16.990817 C101.569369,17.0246556 101.210687,17.2826593 101.067267,17.648154 C100.922985,18.0141518 101.015079,18.4317253 101.302515,18.7126234 L105.421777,22.4014718" id="Fill-4"></path>
                </g>
            </g>
        </g>
    </g>
</svg>