<?xml version="1.0" encoding="UTF-8"?>
<svg width="30px" height="30px" viewBox="0 0 30 30" version="1.1" xmlns="http://www.w3.org/2000/svg" xmlns:xlink="http://www.w3.org/1999/xlink">
    <!-- Generator: Sketch 47.1 (45422) - http://www.bohemiancoding.com/sketch -->
    <title>Fill 1</title>
    <desc>Created with Sketch.</desc>
    <defs></defs>
    <g id="Blog" stroke="none" stroke-width="1" fill="none" fill-rule="evenodd">
        <g id="Home-Filter" transform="translate(-1221.000000, -3221.000000)" fill="#FEFEFE">
            <g id="Footer" transform="translate(0.000000, 3178.000000)">
                <g id="Group-7" transform="translate(1121.000000, 43.000000)">
                    <path d="M124.829274,22.6994809 L124.829274,25.1692652 L120.340365,25.1692652 L120.340365,21.2955841 L120.340365,17.7337697 C120.340365,17.7337697 120.702704,14.8566408 118.002346,14.9369163 C118.002346,14.9369163 115.679476,15.129009 115.679476,17.7337697 L115.679476,25.1692652 L111.315836,25.1692652 L111.315836,11.6243109 L115.679476,11.6243109 L115.679476,13.5661242 C115.679476,13.5661242 116.552849,11.3874628 119.91953,11.3874628 C119.91953,11.3874628 124.829274,10.8665959 124.829274,17.7337697 L124.829274,22.6994809 Z M106.648213,9.82457802 C104.979883,9.82457802 104.145787,8.78227594 104.145787,7.49659007 C104.145787,6.2109042 104.997417,5.16860212 106.648213,5.16860212 C108.25889,5.16860212 109.150639,6.2109042 109.150639,7.49659007 C109.150639,8.78227594 108.241355,9.82457802 106.648213,9.82457802 L106.648213,9.82457802 Z M104.34863,25.1692652 L108.837538,25.1692652 L108.837538,11.6243109 L104.34863,11.6243109 L104.34863,25.1692652 Z M100,30 L130,30 L130,0 L100,0 L100,30 Z" id="Fill-1"></path>
                </g>
            </g>
        </g>
    </g>
</svg>