<?xml version="1.0" encoding="UTF-8"?>
<svg width="28px" height="28px" viewBox="0 0 28 28" version="1.1" xmlns="http://www.w3.org/2000/svg" xmlns:xlink="http://www.w3.org/1999/xlink">
    <!-- Generator: Sketch 47.1 (45422) - http://www.bohemiancoding.com/sketch -->
    <title>Fill 4</title>
    <desc>Created with Sketch.</desc>
    <defs></defs>
    <g id="Blog-Post" stroke="none" stroke-width="1" fill="none" fill-rule="evenodd">
        <g id="Post" transform="translate(-201.000000, -21.000000)" fill="#CCCCCC">
            <g id="Nav">
                <path d="M205.68096,47.1341943 C205.571086,47.7378661 205.823807,48.3562139 206.324942,48.7103941 C206.592926,48.9002034 206.908361,49 207.237103,49 C207.514186,49 207.786669,48.9266201 208.026181,48.788666 L214.998542,44.3486942 L221.971489,48.788666 C222.210316,48.9266201 222.482996,49 222.75998,49 C223.087548,49 223.402103,48.9002034 223.669499,48.7123509 C224.170439,48.3601275 224.424431,47.7427581 224.316416,47.1390863 L222.481332,38.7356228 L228.554838,32.9935006 C228.976332,32.5569393 229.110568,31.9076741 228.897082,31.3393225 C228.684574,30.7716558 228.156336,30.3711973 227.552371,30.3191466 L219.675579,29.3845804 L216.45068,21.9566779 C216.200993,21.3765855 215.631761,21.0010762 214.998542,21 C214.36816,21 213.798536,21.3736503 213.547381,21.9520794 L210.321602,29.3845804 L202.445495,30.3190487 C201.838986,30.3716865 201.310455,30.7730256 201.099121,31.3415728 C200.886515,31.9109029 201.022219,32.5604615 201.445768,32.9974142 L207.515653,38.7356228 L205.68096,47.1341943 Z" id="Fill-4"></path>
            </g>
        </g>
    </g>
</svg>